{"totalElements":1560,"totalPages":78,"pageNumber":1,"content":[{"id":7268540,"name":"\uD83D\uDCA1 BYBIT EDISON 1.1 - XAI","date":"2025-10-03T04:29:51.168507Z","from":"2024-10-02T17:57:00Z","to":"2025-09-24T15:55:00Z","algorithm":"LONG","exchange":"BYBIT_FUTURES","symbol":"XAI/USDT","base":"XAI","quote":"USDT","duration":30837480,"profitBase":0,"profitQuote":670.91921,"netBase":null,"netQuote":622.98074,"netBasePerDay":null,"netQuotePerDay":21.52596,"minProfitBase":0,"maxProfitBase":0,"avgProfitBase":0,"minProfitQuote":1.53660,"maxProfitQuote":47.89680,"avgProfitQuote":10.32183,"volume":87160.84,"minDuration":1559,"maxDuration":717359,"avgDuration":37886,"profits":65,"losses":0,"breakevens":0,"pullUps":0,"winRateProfits":65,"winRateLosses":0,"totalDeals":66,"minGrid":1,"maxGrid":2,"avgGrid":1,"minProfit":1,"maxProfit":1,"avgProfit":1,"mfePercent":6.68,"mfeAbsolute":84.99470,"maePercent":-19.59,"maeAbsolute":-274.05749,"commissionBase":null,"commissionQuote":47.93846},{"id":7268530,"name":"\uD83D\uDCA1 BYBIT EDISON 1.1 - WOO","date":"2025-10-03T04:29:19.987562Z","from":"2024-10-02T17:57:00Z","to":"2025-09-24T15:55:00Z","algorithm":"LONG","exchange":"BYBIT_FUTURES","symbol":"WOO/USDT","base":"WOO","quote":"USDT","duration":30837480,"profitBase":0.0,"profitQuote":641.77926,"netBase":null,"netQuote":587.80205,"netBasePerDay":null,"netQuotePerDay":16.46732,"minProfitBase":0.0,"maxProfitBase":0.0,"avgProfitBase":0.0,"minProfitQuote":1.70256,"maxProfitQuote":101.84917,"avgProfitQuote":9.72392,"volume":98140.38,"minDuration":59,"maxDuration":896759,"avgDuration":46030,"profits":66,"losses":0,"breakevens":0,"pullUps":0,"winRateProfits":66,"winRateLosses":0,"totalDeals":67,"minGrid":1,"maxGrid":3,"avgGrid":1,"minProfit":1,"maxProfit":1,"avgProfit":1,"mfePercent":9.70,"mfeAbsolute":145.45897,"maePercent":-36.24,"maeAbsolute":-543.56094,"commissionBase":null,"commissionQuote":53.97721},{"id":7268519,"name":"\uD83D\uDCA1 BYBIT EDISON 1.1 - WLD","date":"2025-10-03T04:28:48.949295Z","from":"2024-10-02T17:57:00Z","to":"2025-09-24T15:55:00Z","algorithm":"LONG","exchange":"BYBIT_FUTURES","symbol":"WLD/USDT","base":"WLD","quote":"USDT","duration":30837480,"profitBase":0.0,"profitQuote":642.0110,"netBase":null,"netQuote":592.1653,"netBasePerDay":null,"netQuotePerDay":11.6467,"minProfitBase":0.0,"maxProfitBase":0.0,"avgProfitBase":0.0,"minProfitQuote":1.5103,"maxProfitQuote":49.8816,"avgProfitQuote":9.0424,"volume":90628.43,"minDuration":2159,"maxDuration":2507459,"avgDuration":61871,"profits":71,"losses":0,"breakevens":0,"pullUps":0,"winRateProfits":71,"winRateLosses":0,"totalDeals":71,"minGrid":1,"maxGrid":3,"avgGrid":1,"minProfit":1,"maxProfit":1,"avgProfit":1,"mfePercent":11.90,"mfeAbsolute":69.1190,"maePercent":-24.21,"maeAbsolute":-363.0898,"commissionBase":null,"commissionQuote":49.8456},{"id":7268506,"name":"\uD83D\uDCA1 BYBIT EDISON 1.1 - WIF","date":"2025-10-03T04:28:17.512142Z","from":"2024-10-02T17:57:00Z","to":"2025-09-24T15:55:00Z","algorithm":"LONG","exchange":"BYBIT_FUTURES","symbol":"WIF/USDT","base":"WIF","quote":"USDT","duration":30837480,"profitBase":0,"profitQuote":127.7365,"netBase":null,"netQuote":72.9993,"netBasePerDay":null,"netQuotePerDay":1.9505,"minProfitBase":0,"maxProfitBase":0,"avgProfitBase":0,"minProfitQuote":-633.0827,"maxProfitQuote":101.4867,"avgProfitQuote":1.9958,"volume":99522.07,"minDuration":59,"maxDuration":767579,"avgDuration":49745,"profits":63,"losses":1,"breakevens":0,"pullUps":0,"winRateProfits":63,"winRateLosses":1,"totalDeals":65,"minGrid":1,"maxGrid":4,"avgGrid":1,"minProfit":0,"maxProfit":1,"avgProfit":0,"mfePercent":9.37,"mfeAbsolute":140.4367,"maePercent":-28.27,"maeAbsolute":-846.8989,"commissionBase":null,"commissionQuote":54.7371},{"id":7268492,"name":"\uD83D\uDCA1 BYBIT EDISON 1.1 - WAXP","date":"2025-10-03T04:27:46.038835Z","from":"2024-10-02T17:57:00Z","to":"2025-09-24T15:55:00Z","algorithm":"LONG","exchange":"BYBIT_FUTURES","symbol":"WAXP/USDT","base":"WAXP","quote":"USDT","duration":30837480,"profitBase":0,"profitQuote":280.51170,"netBase":null,"netQuote":254.78993,"netBasePerDay":null,"netQuotePerDay":9.71232,"minProfitBase":0,"maxProfitBase":0,"avgProfitBase":0,"minProfitQuote":1.66600,"maxProfitQuote":50.88380,"avgProfitQuote":9.04876,"volume":46766.85,"minDuration":59,"maxDuration":659459,"avgDuration":70830,"profits":31,"losses":0,"breakevens":0,"pullUps":0,"winRateProfits":31,"winRateLosses":0,"totalDeals":32,"minGrid":1,"maxGrid":4,"avgGrid":1,"minProfit":1,"maxProfit":1,"avgProfit":1,"mfePercent":6.22,"mfeAbsolute":75.85630,"maePercent":-28.49,"maeAbsolute":-504.50459,"commissionBase":null,"commissionQuote":25.72176},{"id":7268483,"name":"\uD83D\uDCA1 BYBIT EDISON 1.1 - WAVES","date":"2025-10-03T04:27:14.983261Z","from":"2024-10-02T17:57:00Z","to":"2025-09-24T15:55:00Z","algorithm":"LONG","exchange":"BYBIT_FUTURES","symbol":"WAVES/USDT","base":"WAVES","quote":"USDT","duration":30837480,"profitBase":0.0,"profitQuote":411.5233,"netBase":null,"netQuote":376.9263,"netBasePerDay":null,"netQuotePerDay":24.7750,"minProfitBase":0.0,"maxProfitBase":0.0,"avgProfitBase":0.0,"minProfitQuote":1.6038,"maxProfitQuote":27.4408,"avgProfitQuote":7.7645,"volume":62903.63,"minDuration":59,"maxDuration":315059,"avgDuration":24342,"profits":53,"losses":0,"breakevens":0,"pullUps":0,"winRateProfits":53,"winRateLosses":0,"totalDeals":54,"minGrid":1,"maxGrid":3,"avgGrid":1,"minProfit":1,"maxProfit":1,"avgProfit":1,"mfePercent":6.51,"mfeAbsolute":78.6457,"maePercent":-17.18,"maeAbsolute":-505.8394,"commissionBase":null,"commissionQuote":34.5970},{"id":7268471,"name":"\uD83D\uDCA1 BYBIT EDISON 1.1 - W","date":"2025-10-03T04:26:43.073884Z","from":"2024-10-02T17:57:00Z","to":"2025-09-24T15:55:00Z","algorithm":"LONG","exchange":"BYBIT_FUTURES","symbol":"W/USDT","base":"W","quote":"USDT","duration":30837480,"profitBase":0.0,"profitQuote":519.16381,"netBase":null,"netQuote":480.65379,"netBasePerDay":null,"netQuotePerDay":11.19459,"minProfitBase":0.0,"maxProfitBase":0.0,"avgProfitBase":0.0,"minProfitQuote":1.50060,"maxProfitQuote":52.80233,"avgProfitQuote":10.81591,"volume":70018.22,"minDuration":59,"maxDuration":983459,"avgDuration":75707,"profits":48,"losses":0,"breakevens":0,"pullUps":0,"winRateProfits":48,"winRateLosses":0,"totalDeals":49,"minGrid":1,"maxGrid":3,"avgGrid":1,"minProfit":1,"maxProfit":1,"avgProfit":1,"mfePercent":7.00,"mfeAbsolute":99.73376,"maePercent":-30.41,"maeAbsolute":-245.97766,"commissionBase":null,"commissionQuote":38.51002},{"id":7268460,"name":"\uD83D\uDCA1 BYBIT EDISON 1.1 - VTHO","date":"2025-10-03T04:26:10.992451Z","from":"2024-10-02T17:57:00Z","to":"2025-09-24T15:55:00Z","algorithm":"LONG","exchange":"BYBIT_FUTURES","symbol":"VTHO/USDT","base":"VTHO","quote":"USDT","duration":30837480,"profitBase":0,"profitQuote":3648.413100,"netBase":null,"netQuote":3619.462951,"netBasePerDay":null,"netQuotePerDay":181.925413,"minProfitBase":0,"maxProfitBase":0,"avgProfitBase":0,"minProfitQuote":1.584600,"maxProfitQuote":3282.603300,"avgProfitQuote":81.075846,"volume":52636.64,"minDuration":659,"maxDuration":780959,"avgDuration":38199,"profits":45,"losses":0,"breakevens":0,"pullUps":0,"winRateProfits":45,"winRateLosses":0,"totalDeals":45,"minGrid":1,"maxGrid":2,"avgGrid":1,"minProfit":1,"maxProfit":1,"avgProfit":1,"mfePercent":259.22,"mfeAbsolute":3888.036900,"maePercent":-16.95,"maeAbsolute":-84.724799,"commissionBase":null,"commissionQuote":28.950148},{"id":7268450,"name":"\uD83D\uDCA1 BYBIT EDISON 1.1 - VIRTUAL","date":"2025-10-03T04:25:38.861635Z","from":"2024-11-01T09:39:00Z","to":"2025-09-24T15:55:00Z","algorithm":"LONG","exchange":"BYBIT_FUTURES","symbol":"VIRTUAL/USDT","base":"VIRTUAL","quote":"USDT","duration":28275360,"profitBase":0,"profitQuote":77.4947,"netBase":null,"netQuote":19.2151,"netBasePerDay":null,"netQuotePerDay":0.4718,"minProfitBase":0,"maxProfitBase":0,"avgProfitBase":0,"minProfitQuote":-694.3977,"maxProfitQuote":84.8506,"avgProfitQuote":1.1922,"volume":105962.87,"minDuration":1259,"maxDuration":1024619,"avgDuration":54124,"profits":64,"losses":1,"breakevens":0,"pullUps":0,"winRateProfits":64,"winRateLosses":1,"totalDeals":65,"minGrid":1,"maxGrid":4,"avgGrid":1,"minProfit":0,"maxProfit":1,"avgProfit":0,"mfePercent":14.43,"mfeAbsolute":128.5345,"maePercent":-34.03,"maeAbsolute":-1019.9584,"commissionBase":null,"commissionQuote":58.2795},{"id":7268439,"name":"\uD83D\uDCA1 BYBIT EDISON 1.1 - VET","date":"2025-10-03T04:25:07.117153Z","from":"2024-10-02T17:57:00Z","to":"2025-09-24T15:55:00Z","algorithm":"LONG","exchange":"BYBIT_FUTURES","symbol":"VET/USDT","base":"VET","quote":"USDT","duration":30837480,"profitBase":0,"profitQuote":495.20624,"netBase":null,"netQuote":456.98472,"netBasePerDay":null,"netQuotePerDay":12.77331,"minProfitBase":0,"maxProfitBase":0,"avgProfitBase":0,"minProfitQuote":1.53890,"maxProfitQuote":74.47635,"avgProfitQuote":10.10624,"volume":69493.69,"minDuration":1859,"maxDuration":722159,"avgDuration":63083,"profits":49,"losses":0,"breakevens":0,"pullUps":0,"winRateProfits":49,"winRateLosses":0,"totalDeals":49,"minGrid":1,"maxGrid":3,"avgGrid":1,"minProfit":1,"maxProfit":1,"avgProfit":1,"mfePercent":6.01,"mfeAbsolute":103.51435,"maePercent":-17.76,"maeAbsolute":-275.57620,"commissionBase":null,"commissionQuote":38.22151},{"id":7268427,"name":"\uD83D\uDCA1 BYBIT EDISON 1.1 - VELO","date":"2025-10-03T04:24:34.760806Z","from":"2024-10-02T17:57:00Z","to":"2025-09-24T15:55:00Z","algorithm":"LONG","exchange":"BYBIT_FUTURES","symbol":"VELO/USDT","base":"VELO","quote":"USDT","duration":30837480,"profitBase":0,"profitQuote":1075.195560,"netBase":null,"netQuote":1019.063140,"netBasePerDay":null,"netQuotePerDay":38.875172,"minProfitBase":0,"maxProfitBase":0,"avgProfitBase":0,"minProfitQuote":1.597200,"maxProfitQuote":159.452750,"avgProfitQuote":14.529669,"volume":102058.96,"minDuration":2159,"maxDuration":543659,"avgDuration":30606,"profits":74,"losses":0,"breakevens":0,"pullUps":0,"winRateProfits":74,"winRateLosses":0,"totalDeals":74,"minGrid":1,"maxGrid":3,"avgGrid":1,"minProfit":1,"maxProfit":1,"avgProfit":1,"mfePercent":14.17,"mfeAbsolute":212.485070,"maePercent":-24.20,"maeAbsolute":-249.479459,"commissionBase":null,"commissionQuote":56.132419},{"id":7268407,"name":"\uD83D\uDCA1 BYBIT EDISON 1.1 - UNI","date":"2025-10-03T04:23:31.303057Z","from":"2024-10-02T17:57:00Z","to":"2025-09-24T15:55:00Z","algorithm":"LONG","exchange":"BYBIT_FUTURES","symbol":"UNI/USDT","base":"UNI","quote":"USDT","duration":30837480,"profitBase":0.0,"profitQuote":411.782,"netBase":null,"netQuote":381.332,"netBasePerDay":null,"netQuotePerDay":4.892,"minProfitBase":0.0,"maxProfitBase":0.0,"avgProfitBase":0.0,"minProfitQuote":1.529,"maxProfitQuote":70.338,"avgProfitQuote":10.043,"volume":55362.72,"minDuration":1259,"maxDuration":3351059,"avgDuration":160330,"profits":41,"losses":0,"breakevens":0,"pullUps":0,"winRateProfits":41,"winRateLosses":0,"totalDeals":42,"minGrid":1,"maxGrid":3,"avgGrid":1,"minProfit":1,"maxProfit":1,"avgProfit":1,"mfePercent":5.93,"mfeAbsolute":86.067,"maePercent":-29.12,"maeAbsolute":-536.945,"commissionBase":null,"commissionQuote":30.449},{"id":7268397,"name":"\uD83D\uDCA1 BYBIT EDISON 1.1 - UMA","date":"2025-10-03T04:22:58.856761Z","from":"2024-10-02T17:57:00Z","to":"2025-09-24T15:55:00Z","algorithm":"LONG","exchange":"BYBIT_FUTURES","symbol":"UMA/USDT","base":"UMA","quote":"USDT","duration":30837480,"profitBase":0.0,"profitQuote":-566.693,"netBase":null,"netQuote":-600.750,"netBasePerDay":null,"netQuotePerDay":-17.054,"minProfitBase":0.0,"maxProfitBase":0.0,"avgProfitBase":0.0,"minProfitQuote":-892.879,"maxProfitQuote":43.052,"avgProfitQuote":-13.492,"volume":61923.10,"minDuration":59,"maxDuration":1481519,"avgDuration":70776,"profits":41,"losses":1,"breakevens":0,"pullUps":0,"winRateProfits":41,"winRateLosses":1,"totalDeals":43,"minGrid":1,"maxGrid":4,"avgGrid":1,"minProfit":0,"maxProfit":1,"avgProfit":0,"mfePercent":6.34,"mfeAbsolute":58.855,"maePercent":-36.27,"maeAbsolute":-1087.955,"commissionBase":null,"commissionQuote":34.057},{"id":7268388,"name":"\uD83D\uDCA1 BYBIT EDISON 1.1 - TWT","date":"2025-10-03T04:22:26.387290Z","from":"2024-10-02T17:57:00Z","to":"2025-09-24T15:55:00Z","algorithm":"LONG","exchange":"BYBIT_FUTURES","symbol":"TWT/USDT","base":"TWT","quote":"USDT","duration":30837480,"profitBase":0.0,"profitQuote":313.5296,"netBase":null,"netQuote":290.2594,"netBasePerDay":null,"netQuotePerDay":36.4967,"minProfitBase":0.0,"maxProfitBase":0.0,"avgProfitBase":0.0,"minProfitQuote":1.5274,"maxProfitQuote":26.9886,"avgProfitQuote":8.2507,"volume":42309.38,"minDuration":959,"maxDuration":198659,"avgDuration":18082,"profits":38,"losses":0,"breakevens":0,"pullUps":0,"winRateProfits":38,"winRateLosses":0,"totalDeals":38,"minGrid":1,"maxGrid":2,"avgGrid":1,"minProfit":1,"maxProfit":1,"avgProfit":1,"mfePercent":5.63,"mfeAbsolute":56.8254,"maePercent":-27.02,"maeAbsolute":-135.0600,"commissionBase":null,"commissionQuote":23.2701},{"id":7268376,"name":"\uD83D\uDCA1 BYBIT EDISON 1.1 - TRX","date":"2025-10-03T04:21:54.167408Z","from":"2024-10-02T17:57:00Z","to":"2025-09-24T15:55:00Z","algorithm":"LONG","exchange":"BYBIT_FUTURES","symbol":"TRX/USDT","base":"TRX","quote":"USDT","duration":30837480,"profitBase":0,"profitQuote":83.94825,"netBase":null,"netQuote":75.65405,"netBasePerDay":null,"netQuotePerDay":2.63603,"minProfitBase":0,"maxProfitBase":0,"avgProfitBase":0,"minProfitQuote":2.18312,"maxProfitQuote":40.43077,"avgProfitQuote":10.49353,"volume":15080.35,"minDuration":3659,"maxDuration":2334959,"avgDuration":309959,"profits":8,"losses":0,"breakevens":0,"pullUps":0,"winRateProfits":8,"winRateLosses":0,"totalDeals":8,"minGrid":1,"maxGrid":3,"avgGrid":1,"minProfit":1,"maxProfit":1,"avgProfit":1,"mfePercent":2.95,"mfeAbsolute":73.64171,"maePercent":-21.77,"maeAbsolute":-344.13431,"commissionBase":null,"commissionQuote":8.29419},{"id":7268368,"name":"\uD83D\uDCA1 BYBIT EDISON 1.1 - TRUMP","date":"2025-10-03T04:21:22.265231Z","from":"2025-01-18T10:30:00Z","to":"2025-09-24T15:55:00Z","algorithm":"LONG","exchange":"BYBIT_FUTURES","symbol":"TRUMP/USDT","base":"TRUMP","quote":"USDT","duration":21533100,"profitBase":0.0,"profitQuote":460.799,"netBase":null,"netQuote":427.045,"netBasePerDay":null,"netQuotePerDay":11.777,"minProfitBase":0.0,"maxProfitBase":0.0,"avgProfitBase":0.0,"minProfitQuote":1.507,"maxProfitQuote":116.726,"avgProfitQuote":11.815,"volume":61371.07,"minDuration":1559,"maxDuration":1442459,"avgDuration":80328,"profits":39,"losses":0,"breakevens":0,"pullUps":0,"winRateProfits":39,"winRateLosses":0,"totalDeals":39,"minGrid":1,"maxGrid":3,"avgGrid":1,"minProfit":1,"maxProfit":1,"avgProfit":1,"mfePercent":32.18,"mfeAbsolute":160.473,"maePercent":-21.21,"maeAbsolute":-193.305,"commissionBase":null,"commissionQuote":33.754},{"id":7268360,"name":"\uD83D\uDCA1 BYBIT EDISON 1.1 - TRB","date":"2025-10-03T04:20:51.098398Z","from":"2024-10-02T17:57:00Z","to":"2025-09-24T15:55:00Z","algorithm":"LONG","exchange":"BYBIT_FUTURES","symbol":"TRB/USDT","base":"TRB","quote":"USDT","duration":30837480,"profitBase":0.00,"profitQuote":-506.800,"netBase":null,"netQuote":-575.250,"netBasePerDay":null,"netQuotePerDay":-12.810,"minProfitBase":0.00,"maxProfitBase":0.00,"avgProfitBase":0.00,"minProfitQuote":-634.240,"maxProfitQuote":81.120,"avgProfitQuote":-5.820,"volume":124448.28,"minDuration":2159,"maxDuration":893759,"avgDuration":44586,"profits":85,"losses":2,"breakevens":0,"pullUps":0,"winRateProfits":85,"winRateLosses":2,"totalDeals":87,"minGrid":1,"maxGrid":4,"avgGrid":1,"minProfit":0,"maxProfit":1,"avgProfit":0,"mfePercent":7.97,"mfeAbsolute":83.220,"maePercent":-30.92,"maeAbsolute":-691.130,"commissionBase":null,"commissionQuote":68.440},{"id":7268353,"name":"\uD83D\uDCA1 BYBIT EDISON 1.1 - TON","date":"2025-10-03T04:20:18.333017Z","from":"2024-10-02T17:57:00Z","to":"2025-09-24T15:55:00Z","algorithm":"LONG","exchange":"BYBIT_FUTURES","symbol":"TON/USDT","base":"TON","quote":"USDT","duration":30837480,"profitBase":0.0,"profitQuote":253.4481,"netBase":null,"netQuote":231.8677,"netBasePerDay":null,"netQuotePerDay":13.7746,"minProfitBase":0.0,"maxProfitBase":0.0,"avgProfitBase":0.0,"minProfitQuote":1.5849,"maxProfitQuote":32.0456,"avgProfitQuote":7.2413,"volume":39237.06,"minDuration":2759,"maxDuration":720659,"avgDuration":41553,"profits":35,"losses":0,"breakevens":0,"pullUps":0,"winRateProfits":35,"winRateLosses":0,"totalDeals":35,"minGrid":1,"maxGrid":2,"avgGrid":1,"minProfit":1,"maxProfit":1,"avgProfit":1,"mfePercent":5.78,"mfeAbsolute":68.1934,"maePercent":-32.36,"maeAbsolute":-161.7147,"commissionBase":null,"commissionQuote":21.5803},{"id":7268342,"name":"\uD83D\uDCA1 BYBIT EDISON 1.1 - TLM","date":"2025-10-03T04:19:47.304482Z","from":"2024-10-02T17:57:00Z","to":"2025-09-24T15:55:00Z","algorithm":"LONG","exchange":"BYBIT_FUTURES","symbol":"TLM/USDT","base":"TLM","quote":"USDT","duration":30837480,"profitBase":0,"profitQuote":730.632830,"netBase":null,"netQuote":681.281315,"netBasePerDay":null,"netQuotePerDay":10.099292,"minProfitBase":0,"maxProfitBase":0,"avgProfitBase":0,"minProfitQuote":1.517076,"maxProfitQuote":98.133567,"avgProfitQuote":11.977587,"volume":89730.02,"minDuration":2159,"maxDuration":1936859,"avgDuration":95547,"profits":61,"losses":0,"breakevens":0,"pullUps":0,"winRateProfits":61,"winRateLosses":0,"totalDeals":61,"minGrid":1,"maxGrid":3,"avgGrid":1,"minProfit":1,"maxProfit":1,"avgProfit":1,"mfePercent":5.29,"mfeAbsolute":117.407768,"maePercent":-25.28,"maeAbsolute":-651.145127,"commissionBase":null,"commissionQuote":49.351514},{"id":7268334,"name":"\uD83D\uDCA1 BYBIT EDISON 1.1 - TIA","date":"2025-10-03T04:19:15.173348Z","from":"2024-10-02T17:57:00Z","to":"2025-09-24T15:55:00Z","algorithm":"LONG","exchange":"BYBIT_FUTURES","symbol":"TIA/USDT","base":"TIA","quote":"USDT","duration":30837480,"profitBase":0.0,"profitQuote":-26.6410,"netBase":null,"netQuote":-69.2420,"netBasePerDay":null,"netQuotePerDay":-2.4030,"minProfitBase":0.0,"maxProfitBase":0.0,"avgProfitBase":0.0,"minProfitQuote":-493.5110,"maxProfitQuote":43.6560,"avgProfitQuote":-0.4670,"volume":77455.13,"minDuration":1259,"maxDuration":760439,"avgDuration":42920,"profits":56,"losses":1,"breakevens":0,"pullUps":0,"winRateProfits":56,"winRateLosses":1,"totalDeals":58,"minGrid":1,"maxGrid":4,"avgGrid":1,"minProfit":0,"maxProfit":1,"avgProfit":0,"mfePercent":11.69,"mfeAbsolute":58.4220,"maePercent":-23.74,"maeAbsolute":-496.4530,"commissionBase":null,"commissionQuote":42.6000}]}
